AHL70 146
ALAI 100
ALLN 112.1
ALSC 69
AMTI 140.2
DCFSN 38.2
FIOAC 57
FIPM 140.1
FRPM 139.1
FSPD 128.2
HSID 22.1
ICOR 51
IEAT 43.1
ILF 124.1
IMEF 139.2
IMTI 139.3
IO70 107.2
IOPCD 59.2
LEN 19.1
LFH 87.1
LFPF 80.1
LPD 37.1
LUFDT 82.1
LYF 104
MTFN 33.1
NRUF 131
PALT 84.1
PL 87.2
PPGF 138
PPOL70 143.1
PPTD 141.1
RLT 30.1
SAD 40.1
SCOR 72
SD 109.1
SFPC 127.1
UILDT 119.1
