,AI,AIOPC,AL,DIOPC,EHSPC,FCFPC,IC,LFERT,LUFD,LYF2,LYTD,NR,NRTD,NRUF2,P1,P2,P3,P4,PAL,PFR,PLE,PPAPR,PPGF2,PPOL,PTD,SC,UIL
AI,1.0,-0.4129296044153121,-2.045868720322784,-19.24479413881496,0.06694532677395976,-13.385225978038973,-1.8502707679558226,-0.8814255680575582,-0.02935488390824019,-2.3105439135826253e-07,-0.7501763249551059,3.471857830872932,-3.0712048955982003,-9.911268125903259e-08,1.0684134907360592,1.8908284722506594,0.09034512226135216,0.024963371803543768,-3.712566636605435,0.004903626748630853,-15.317490781793925,13.629661779468897,1.9662040861522528e-08,0.002394785968143131,0.645371347301195,-0.6330483804285831,-0.01728985308738921
AIOPC,-0.035794775659832315,0.9999999999999966,-1.4664950872878277,-14.139286268835177,0.035527084239525,10.171759042401176,-1.3805541884189971,-0.20269018557552407,-0.01947939393718625,-3.6283361425603074e-08,-0.13042301952129995,2.7387991317598557,-2.211223663416932,-7.786686648843648e-08,0.5869879340995255,1.0317611424355353,-0.08204094230219915,-0.02194126924961569,-2.626146145193411,0.0011139674496917962,-11.440399570212112,6.15864026710913,6.392252592349007e-09,0.000800226025244842,0.16814035500437272,-0.47705779572182966,-0.012236205608428329
AL,0.006471105188637139,-0.029121394179244208,1.0,-3.3923742819442158,0.005106396740275607,-2.482061938751218,0.2429408404322556,0.03884564774915759,-0.0032070886306654733,-7.265351410149605e-08,-1.255997681399554,0.4219436352855133,-0.16778551427574986,-1.1701492039701458e-08,-0.07471039547156985,0.13156324468546987,-0.008343012559088337,-0.0017024174071493278,1.5186140515266777,-0.00020071773971842578,-2.6453006482562933,9.40745048806305,1.7729638702161e-08,-0.0001530202048796306,0.2393396548076755,0.08421573486002704,0.006762652591014294
DIOPC,-0.025660707884709016,-0.16981233171331198,-1.1625894412707665,-49.86925866858956,0.02635294195696654,8.907173635487668,-1.0369459441728572,-0.1481585402049795,0.013553270832249645,1.5018147197492372e-08,-0.0742877337702877,1.8407772545603152,-1.7244669275040876,-5.270657907025278e-08,0.44793472698645204,0.7860744135272175,-0.05068427532857908,-0.010901138014456727,-1.9563819189546836,0.0007984128166472554,9.49344482228133,5.346592557290868,5.81982645364247e-09,0.0005805883272881284,0.1458130496444243,-0.3560246004705048,-0.00962827156778348
EHSPC,-0.017569020560526383,0.23556509764007103,-0.7267331111090404,21.751783112050028,1.0000000000000009,15.22441515938576,0.777330284803522,-0.10997133950826497,-0.010511779610326169,-1.2010151320050037e-08,-0.12402598234137895,1.929587469229621,-1.0218997656092794,-5.486790949465559e-08,-0.5999046983629943,-1.0527505131854007,-0.027655964629101956,-0.005987109726345685,-1.1271800592254273,0.0005460980434076499,16.565936386910725,-2.2495512483237294,2.0219893620206124e-09,0.00043227547877492203,0.0844852091895954,0.2644782664577525,-0.005938992409475854
FCFPC,-0.04247915981689904,0.6790850418139706,-1.5003714748765682,51.25649688176026,-0.07398686425418949,114.85012468745374,1.5064672009596598,-0.27791031653772524,-0.020259439598923665,-2.076180807991404e-08,0.24765694630985652,3.3201170511137414,-2.0252967906496226,-9.471595927545916e-08,-1.1197408125598973,-1.9628850791708576,-0.09873552161935789,-0.021299896373560584,2.037024883098977,0.0013095192587673785,34.04757729601403,14.245281327178654,-8.642941349036022e-09,0.0010973264457004954,-0.2765408189091433,-0.5198547000921085,-0.01192832161651245
IC,-0.032170198014826124,-0.2649294830432164,-1.2748177624634178,-12.985217789792852,0.042181262024091525,-8.66227511594539,-1.3702127501996464,0.16576222026396698,0.018045003669847355,3.2680334382095047e-08,0.2558588403286261,1.6868800846404384,-2.0606824919443554,-4.883366317551176e-08,0.6928657551939184,1.2202701360698953,-0.031571199315699204,-0.007122986585415276,-2.0221931338359953,0.001008890463945273,-10.48909038290237,14.67721068124952,-9.411397183111146e-09,-0.0006446163175897125,-0.2630358410293293,-0.4699914053061792,-0.010490004327095548
LFERT,-0.016306411661639122,0.10029570118746278,-0.518527146254706,8.77357822993499,-0.01696396466569554,6.468668097045101,-0.5998307454456054,1.0,0.007927698338719962,1.488237885284798e-08,0.5467542918892306,-2.3142582888435443,0.8400305219564924,6.535796641856198e-08,-0.257688493768108,-0.45080288916902234,0.020761220645030092,0.004215142802885174,-0.6079338114490214,0.0005037304227072358,6.994718258063558,23.936009369871307,-5.1299147234805314e-08,-0.0024846056072646296,-1.5487645250589341,-0.20880778122403337,-0.004060997430490105
LUFD,-0.8653792869717567,0.5947362519639036,3.7386767220311126,27.969791595488875,-0.09607279906202963,17.716008226751985,2.7754169046981527,0.7563184084003972,1.0000000000000009,-1.5439312337009087e-07,-3.38416901391829,-1.1144885319788866,4.3901771197944095,3.3553973041489836e-08,-1.5290019247850006,-2.700259825718814,-0.19442773201827868,-0.02170861445518877,7.396728472135479,0.028737357112842723,21.718567536954332,-5.455745016557338,3.149070336905424e-08,-0.0010788097205573428,0.6976980057348118,0.9189256749303025,0.030893893177238216
NR,-0.027813380757038215,-0.21956505234321408,-1.0126578428940491,-7.747006536240894,0.035122601287091514,-5.707995505030805,-1.1466872182027612,-0.14036020083950845,0.015483615776133115,8.149510597724444e-09,0.14002416204114146,1.924315246895267,-0.7540029743863786,-5.4426441534640717e-08,0.579158633485371,1.0080100865513424,0.026988770250143925,0.005683398786625871,-1.5470355314057902,0.0008714150356809379,-6.7197817749776565,4.547453547238538,6.13984239747792e-09,0.0005551984714208068,0.12421327764798996,-0.39523101191006793,-0.008471982393899177
P1,0.019483069977716608,-0.23705505036020216,0.3482923467068245,-22.49487238933915,0.04039191082135076,-15.002291036889078,-0.638423123717706,0.11669357581585323,0.00878750076413654,-1.3771431493466653e-08,0.2111489089279853,0.5947787705014873,-0.43393346691167967,-1.699972911150089e-08,1.0,1.0666447651553248,-0.039362772090819835,-0.010345100031496966,-0.5499474204474025,-0.0006444411737375626,-17.284182263662,9.245498162272963,7.530658525983485e-09,-0.00045012705141573846,-0.18243984344425218,-0.21702994942887593,-0.002908461406442711
P2,0.011194669556724508,-0.1633809901214231,0.3949486045879034,-15.56800872336654,0.027749057191544375,-11.049622586681702,-0.47371770197144225,0.08705081543989415,0.0063528492188091555,-1.3759090436610989e-08,0.2546203326657787,0.3499657125928139,-0.5084581433304414,-1.002275606119568e-08,0.4127804887375022,1.0,-0.027145786932121767,-0.005834867411992478,0.4639926323556033,-0.0003418112430470365,-12.12349350617519,10.211157681924119,6.5497541788493004e-09,-0.000339272253928206,-0.21945590718543528,-0.16089212922866708,0.0030395859074384126
P3,0.013579916678403572,-0.14206930683983973,0.4481156384254314,-11.474121524656358,0.023208623693207545,-8.313376000616753,-0.5986372094989416,0.0924409291409339,0.007927778496008465,-1.797370273633948e-08,0.32956195197126253,0.5742065299010433,-0.7551829565473598,-1.7043969938997687e-08,0.3660426965081155,0.6465828074317884,1.0,-0.005778384251594229,-0.6030707617565216,0.00041951985828536415,-9.105218759957765,13.038845275058442,8.038882325697235e-09,-0.00036399951783432153,-0.2877912167362898,-0.20451026414084844,0.00347066010762418
P4,-0.02035152084786476,-0.11109646663587701,-0.6825459721887566,-5.574827963791192,0.01700513526542389,-4.253756272653769,-0.8054513223456689,-0.11817312862454332,0.010493946807842804,-2.3143023783665352e-08,0.5298586701449334,1.0653155419246596,-1.1497779240579735,-3.135390119716584e-08,0.29736764458374876,0.5197807198626148,0.41189273928081,1.0,0.954963267861071,0.000633000361319131,-4.670081405820974,19.260656680994952,-1.3820538522766795e-08,0.00046143188472973375,-0.5064963474482748,-0.2765455020266611,-0.005349401769512174
PAL,-0.02622089452271111,0.14074560017481114,0.6858575599235555,14.468665587399613,-0.02533232763314651,11.310346473066698,-0.989965653006667,-0.1531114146558964,0.013343022533291653,6.212754632409867e-08,0.4154060227051946,-3.329334281744787,1.4735054087230597,9.440728426499408e-08,-0.3466020289687264,-0.6137506586448248,0.03077921314549641,0.006314296973183266,1.9617008484401006,0.0008162342952429168,12.173448238067234,-2.512931721091806,-7.278569817910585e-09,0.0006089617590370119,-0.17768302962236618,-0.34393009771038896,0.006630855298176023
PFR,0.07699685842161219,0.0840115093027452,-0.48028209382157405,13.735419537488355,-0.015297761593401581,9.508526879634998,-0.6370492883158819,0.5124704578400732,0.008392492920649029,1.881495598388866e-07,0.6955795177228172,-1.045896697481692,-0.37554902622671277,3.009372103584632e-08,-0.23399120487111827,-0.38003512891948915,-0.06727292804673896,-0.019351442339383417,0.6197442815248856,1.0000000000000009,10.199330681569146,20.008565264246187,-2.870673790975675e-08,-0.0015232477121505281,-1.0178874652511434,-0.22225659964789454,-0.003523111649884723
PLE,-0.01087700902075468,0.0998197239692285,-0.41300913551920854,8.191425919794526,-0.015734450609579773,6.450118817081833,-0.3630132687344038,-0.08006486089729586,-0.004736740372855111,-1.4906363856235114e-08,0.2724180066868837,0.5337891475066772,-0.5989243569879966,-1.55048794176137e-08,-0.2574397259171112,-0.4534277980677692,-0.017312757891571103,-0.0036933667625209145,-0.5112915664781582,0.00033255506879951134,21.437413705296546,10.74639326915006,-9.948480671516314e-09,0.0003125597595236001,-0.29744907132017984,-0.12527414770474046,-0.0031194513468875626
PPOL,0.0376132885911401,-0.34238075829737563,-1.4506690886485085,-15.995899882446245,0.055447209452795576,-12.055346448979767,-1.5717791204782154,-0.17026706008759304,0.020940615283060366,-4.732763970106125e-08,-0.447708785806308,3.5622230600535034,-2.175129333240861,-1.0058427696180761e-07,0.8904154779252249,1.5715942891434989,-0.032194686742909664,0.006729912528302505,-2.422639044365076,-0.00133121872084288,-13.382685161686306,63.121637360221314,1.15519608449876e-07,1.0,1.5656036299238385,-0.5405660914798941,-0.012201008442194107
SC,-0.028064808781609385,-0.2502053176762772,-1.0382901716159643,-11.8525885354368,0.04028005037873664,-8.619349615242356,-1.2028609598856872,0.1450760219304829,0.01600186289046573,-2.8798928777430568e-08,0.20039300151629824,2.382152140927298,-1.6761028107930624,-6.787261336883373e-08,0.6520257013554401,1.149115476566208,-0.028135170316204255,-0.005872809331849096,-1.6595481038019408,0.000881368044592451,-9.620136981208528,12.810793346543056,5.8861860525435195e-09,-0.0005700377960904836,-0.14592478948074747,1.0,-0.008600000553326189
UIL,0.020538657752796893,0.10987299836591793,0.6941528519369464,2.4016126353138896,-0.016529597993970153,1.0742528777377025,0.7935591348960914,0.11976632881836341,-0.010535819075282097,-1.820372619255293e-08,-0.08125454981587331,1.046182021018168,-0.35876326064365505,-2.9597577055360868e-08,-0.29813663218438596,-0.5140307356341558,0.03837760052772288,0.009180539134972571,1.0488199589438103,-0.0006379879816552029,1.659989909692351,-2.7054596900368226,-2.0559806509339497e-09,-0.00047250125188886627,-0.011881674842821596,0.2737842483765117,1.0
