,AMTI,AHL,ALAI,ALLN,ALSC,DCFSN,FSPD,FIPM,FIOAC,FRPM,HSID,IEAT,IO70,ICOR,IMEF,IMTI,IOPCD,ILF,LFPF,LUFDT,LFH,LYF,LEN,LPD,MTFN,PPGF,PPOL70,PPTD,PALT,PL,RLT,NRUF,SCOR,SAD,SD,SFPC,UILDT
AI,0.3393544245786682,-7.625181269345142,0.535682885874967,-0.6685525109134339,-2.1488113530266872,6.556210809167571,-0.014392067895109571,0.3393544245786682,28.643884262327386,0.37000669599841846,0.09111849893227965,0.5600070904911876,0.0,23.15445804039076,0.37000669599841846,0.37000669599841846,0.0,-5.2192558912435825,0.0454101817476956,0.00437064621492738,-5.407315037156991,-2.7940524860951688,5.763032940697108,0.19841970565607522,1.3545155086790097,0.709823898707685,-0.7073469597268941,-0.18826164962770203,2.5359209690087767,0.6052819620670662,-7.7004747007433485,-3.3862223913566676,4.651975139088115,0.2443554666607085,0.34704296991865075,-2.9894135748449284,-0.01482362901728054
AIOPC,0.11733211072299271,-2.110830713136733,0.28409611192762696,-0.46392001838748254,-1.577967710510404,-2.817294217559114,-0.003368200873171503,0.11733211072299271,17.750816266547844,0.11306266344826904,-0.079150266660858,0.5643973842578486,0.0,14.473298849304445,0.11306266344826904,0.11306266344826904,0.0,-3.8850240229495925,0.0307357570647727,0.0030516379964407496,-4.032595884789856,-2.6034163178689105,-2.368013263183287,0.14120205620373194,0.7098655789982548,0.23170802634104506,-0.22825921728210227,-0.05737828261234512,1.7579158884145505,0.4481023424859577,3.547366848015507,-2.4586452996440427,3.110192319459462,0.1781280610118716,0.21344139597418685,1.072819302748528,-0.010367652233395051
AL,0.14604294859110162,-4.138333599395665,-0.2147916099016372,0.41731218614333143,0.23106260181642485,0.7327939879773191,-0.006658247473276498,0.14604294859110162,-2.3342408857202313,0.17670123102254018,0.013791362951847803,0.07528363879357174,0.0,-2.0297935059846917,0.17670123102254018,0.17670123102254018,0.0,0.27252052839063085,0.004036503367506091,0.00010657328401191521,0.30609013606195223,-1.410871295532788,0.5191208768666338,0.03428466692866786,0.11513259098984731,0.3233445979000042,-0.3179213128818038,-0.13487829362077502,-1.3824458547983354,-0.03460914169076264,-0.8236186500441889,-0.2609456724396628,-0.4442108493800379,0.041579625191449136,-0.2092147721358733,0.1349294781634897,0.006912312632218949
DIOPC,0.10502770075368785,-1.7652355658871954,0.18106653196370215,-0.28748782604454454,-1.281689142722952,-2.4692303106341837,-0.0028622215428460752,0.10502770075368785,14.819554039427917,0.10306584424502913,-0.0686540457480602,0.28567769927849335,0.0,12.13837179976349,0.10306584424502913,0.10306584424502913,0.0,-3.0879591180012973,-0.01783361630523542,-0.0004536350539435657,-3.222182899600608,-1.9352621890373147,-2.1416006181297838,-0.10779579300047336,-0.5893868606914653,0.20924913098453363,-0.20611575098554435,-0.041757909728605894,1.4131999312547614,0.3598977107522749,3.1374972871364295,-2.0156124720330135,2.5309187353737843,1.0513881955901896,0.1270405811316739,1.0165249595976396,-0.007338344224272062
EHSPC,0.05804507563763856,-1.0003568732290482,0.09103230254377022,-0.1502963418462882,1.2837185915152307,-4.0916611925963196,-0.0015627819404547038,0.05804507563763856,-9.584604226124338,0.05489957070480174,0.6695642564100306,-0.46556416652353966,0.0,-8.139501103692089,0.05489957070480174,0.05489957070480174,0.0,-1.8298222177773271,0.012678595221221134,0.00033451983775140907,-1.9305871002988764,-1.356901980526883,-3.382774395260895,-0.18143787585921822,-0.8865430937552531,0.11294169336036933,-0.11133333473611663,0.02463774530935186,0.8532087976241655,0.21583101282241163,5.233927922117805,-1.372442133128457,-2.248843837213552,-0.21829845292669997,0.054723062435823526,1.6079535455184573,-0.0037172738413188107
FCFPC,-0.09748516007084237,3.3243139662152448,-0.15423962489550389,0.23538127436833622,2.1578285366000527,-8.801949794363765,0.0062315816996598005,-0.09748516007084237,18.16434957240553,-0.09185945727083036,1.8658724822226662,-0.8737775685932274,0.0,15.245310023529132,-0.09185945727083036,-0.09185945727083036,0.0,3.1666999611790594,0.024589318220871455,0.0006489487016126273,-3.379083878799851,-3.056424050648997,-5.069890181458474,-0.3964900399339112,2.8818224188553367,-0.19110053309352198,0.1719792053845596,-0.1817608551234266,1.8386326588125415,0.38395888913098536,9.280364390700306,-2.6913092235969374,-3.782583846478807,-0.5344062642612237,-0.11059393503364118,2.58075501283211,0.0073334125082392615
IC,-0.09814218785718393,3.2993337090846215,0.13771199601620596,-0.17914001656254006,-1.2970853565373197,2.920288541562592,0.006787771274979154,-0.09814218785718393,18.266390346067606,-0.1095469743312849,-0.014665996772112362,0.41188602916192013,0.0,16.108713243193684,-0.1095469743312849,-0.1095469743312849,0.0,-3.057632911228225,-0.02056689047352912,0.0007252625851262385,-3.2180843755205406,-2.148640161577135,2.9527605610661927,0.125413480979382,0.8425523105302025,-0.20956824711279937,0.19379311779932445,-0.1295265759933541,1.654093154251824,0.3577453134341919,-3.6782102932668037,-2.4339493860952692,3.1526391993020866,0.15939841028233037,-0.09289373758322071,-1.2896870557114288,-0.007053753818516452
LFERT,-0.7559355914633357,19.417602355568295,-0.18397265344540745,0.09557318809351756,-0.8145025870725027,-1.9444347900468082,0.036603788981492205,-0.7559355914633357,8.315136811993346,-0.8156764420681852,-0.031385023874280264,-0.18336376305255495,0.0,6.955308336865536,-0.8156764420681852,-0.8156764420681852,0.0,1.8369789546239672,-0.00999417457066845,-0.0002639130467555966,-1.0655170565304015,-1.0030918043449415,-1.579587630774859,-0.08833391390753952,-0.36143179370149137,-1.571366177237387,1.548246400728239,0.4017301791425713,0.7677223991017733,0.11998036879537013,2.2212723680719764,1.3607925980090518,1.506038729087136,-0.10800285879212146,-0.2137991452784444,-0.7083842709367335,-0.001418681171703498
LUFD,0.35018800719000875,-10.994593635842493,-1.1576789426267204,1.7847166025492835,3.433996760794706,-9.295376980755805,-0.018017008942208698,0.35018800719000875,-28.900134467381484,0.37732798657945493,-0.19502155979018385,-0.6924510854798498,0.0,-26.559454043190822,0.37732798657945493,0.37732798657945493,0.0,7.424735791259349,-1.009165722329746,-0.13608536802107277,7.731654412833859,1.1099976543370373,-8.248739412309261,-0.21032153726654917,-1.8975712530259763,0.7293173714531405,-0.7013351576274165,-0.10645596574321559,-4.134383745840759,-0.8073208450344281,12.724317076271488,4.676075280489026,-6.571608256295476,-0.2618852707186667,-0.7780187788145935,5.605337719589541,0.029245126617403874
NR,0.062394797535122865,-1.652734632110727,0.10194860356581173,-0.14676819793475182,-1.3160480377054724,2.569376662383561,-0.0032738843828626295,0.062394797535122865,14.795402391484878,0.07173538623564205,0.01559043787151496,0.289336078578942,0.0,12.435607974911917,0.07173538623564205,0.07173538623564205,0.0,-2.4709796143862137,-0.019094988747620483,-0.0005047247222636106,-2.6056520547882895,-1.8682417455297176,2.5644210148783086,0.08126358706830536,0.6933084261555764,0.13529240838723916,-0.13007621235172065,-0.04682250619039255,1.2762142410037516,0.29565833919676887,-3.146347862746303,-1.1959646906984767,2.5152949259018618,0.10073744338724405,0.07788866980957858,-1.1931635041619788,-0.004918475544672962
P1,-0.07860948719425309,2.092337968256833,0.02294076842383753,0.08718163413970886,-0.7349773751198133,5.5204396079089815,0.004448408971165545,-0.07860948719425309,8.159117125534667,-0.08290643555308475,0.14979179957982097,0.5091290001988925,0.0,6.907654114262912,-0.08290643555308475,-0.08290643555308475,0.0,-0.871487782942622,0.011759319936039334,0.0012282152303805252,-0.8959283429120182,0.7855776556817394,3.344415925398999,0.24179829641070757,0.8454654349390935,-0.16128088353109754,0.15162778415420622,-0.15395640667203486,0.49347401844650673,0.09955102744491844,-6.059288746407947,-0.4529281940682842,1.4087639073125824,0.3135493504281361,-0.0447053284532183,-1.6321598738568464,-0.0016379517892744068
P2,-0.09842952654816463,2.5900752636290654,-0.020381871978165475,0.07536688849589596,-0.49960987008397273,3.826778455498578,0.004600245656138956,-0.09842952654816463,6.567266639488135,-0.08979564880192625,0.10117079354271001,0.3435136540708849,0.0,5.438209789966025,-0.08979564880192625,-0.08979564880192625,0.0,0.8169493702789228,-0.006604323098650199,-0.00018485822155574395,0.8972531174330938,0.873197080385185,2.618357329577064,0.16386635661950819,0.5868398031555533,-0.1879820694682471,0.17577309647648767,-0.1603427204038243,0.43069415311443104,-0.10071865999904722,-4.302941113484247,-0.5584935352821436,1.0623951465989185,0.20367576582559266,-0.04751195862475046,-1.4195545743502482,-0.001459980138087049
P3,-0.13015325420491586,3.428480768809667,-0.03720225214116772,0.09726510016606585,-0.5741506636112998,2.687072594492303,0.005814108176504074,-0.13015325420491586,8.074168454052764,-0.11640218512108515,0.13500879938134577,0.267574799285198,0.0,6.690310260390805,-0.11640218512108515,-0.11640218512108515,0.0,0.9426758352703308,0.007840188005039182,-0.00023805689679442897,1.0295509196994785,0.9926758982731299,2.3259939742817948,0.11647497414551747,0.4765955422785545,-0.24646797267446524,0.23038766861662466,-0.19568760698971407,0.6104990501492945,-0.11542052008631055,-3.156305697486623,-0.8903525545043037,1.2975840533856575,0.14341617148704747,-0.06433047480957561,-1.475413029102721,-0.0018125036230493843
P4,-0.2308325807191104,6.125047015600908,-0.09933911143193705,0.15387345247963136,0.8187069630611447,-1.0539535745113038,0.010253342220952573,-0.2308325807191104,10.682794592727083,-0.2187272567598456,0.16795813358068157,0.18884713566025685,0.0,8.840751569632921,-0.2187272567598456,-0.2187272567598456,0.0,1.520989674725004,0.01204744596604621,-0.00031856822224514994,1.6137546123357722,1.433172134546463,2.0451105755353796,0.05971656904373562,0.32653515216587314,-0.44983207489673377,0.41823901509099454,-0.26101889380276955,0.9297209419582653,-0.18124373504048652,1.002459497378448,-1.399648517906354,1.682587161533956,0.07511993452832418,-0.11902755218360607,-1.5648796454445644,0.0038525247229076894
PAL,-0.054312374104246955,2.033802847664776,0.7704551472801942,0.5586959013359858,-1.2008705290047974,-3.324373605463969,0.006283053017256263,-0.054312374104246955,13.292811700709017,-0.06395850716567969,-0.044887103955109864,-0.35552099077388244,0.0,11.079139100758495,-0.06395850716567969,-0.06395850716567969,0.0,-1.5518194420724627,-0.01667116863090922,-0.00044102846819458314,-1.701614478603111,-1.8713449301366516,-2.5238255843737485,-0.15123732963878103,-0.6167078783091424,-0.12064030800553499,0.11145224527120609,-0.022835079746867937,2.235782744025965,0.19436222328537625,3.9473723915298513,2.243098793882618,2.2768349586534296,-0.18244211389563406,0.7399285569045755,1.0939940867793538,0.011333837599619824
PFR,-0.46309621936968237,11.49533679651861,-0.1866527252546023,0.2167174217344024,-0.7814529779645835,-2.579099401402303,0.07758822882913266,-0.46309621936968237,7.984051866776921,-0.5059200394747524,-0.07863706615389762,-0.24674178141562664,0.0,6.742608349695152,-0.5059200394747524,-0.5059200394747524,0.0,0.8154767948509823,0.0138419256109523,-0.0002832178940002992,0.8118755163534327,-1.291016100131217,-1.620113595438931,-0.13191039541399,-0.3831497224511056,-0.9722173800504931,0.9518378921764257,0.21966402058694484,0.7265739738957898,0.09103235469848864,2.8370270755071707,0.48827304457299087,1.4720080471183197,-0.16042595707564583,-0.2454906879993144,-0.9697168962503385,0.005054305719436543
PLE,-0.13107835881666943,3.54863236349848,-0.06310970664412854,0.10079474894551464,0.42448244097095134,-2.1498035577224677,0.006968867870660036,-0.13107835881666943,4.552869003728338,-0.13702732799338754,-0.0999501351240213,-0.19684054290210867,0.0,3.785373906162992,-0.13702732799338754,-0.13702732799338754,0.0,-0.6521012735115601,0.0057257624985151915,0.00015111678987522837,-0.7316381781515778,-0.7119153866149505,0.6541748585338194,0.2745242466119377,-0.3865868928605966,-0.2676922121138901,0.2502440629883661,-0.16899946926743314,0.518758221378419,0.08031509593659,2.4150545220256205,-0.7239066079155438,-0.7848438280314953,-0.10349796581484781,-0.08980032899778134,0.4686864874541983,0.002200515369838757
PPOL,0.9146994145695869,-28.16076801794357,0.2779407691265111,-0.3152892545778485,-1.72690924200589,4.992398072476376,-0.006588678695533694,0.9146994145695869,22.36662788989746,0.7749257071062108,0.04693153850526003,0.5042045408396113,0.0,18.37305037389517,0.7749257071062108,0.7749257071062108,0.0,-3.805683893219963,-0.02180132808620551,-0.0006553423301259469,-3.96955182457625,-2.667156584228518,4.494051177494953,0.16864875118585165,1.120758740963784,1.6372207175473183,-0.6177354302534497,1.4102872378364213,1.8429571938828455,0.447671590370046,-5.84370858820154,-2.6500705722975955,3.595926298320365,0.20653828721693018,0.1610685107825028,-2.024801762055501,-0.008804892384021018
SC,-0.03810014548757026,1.613335902156004,0.12342242115272917,-0.16152846667417115,1.1795206841219092,3.5667252534948264,0.0035602970219352804,-0.03810014548757026,16.641870166437275,-0.03473371386005226,0.035930601943781844,0.36196974288818295,0.0,13.689187496015611,-0.03473371386005226,-0.03473371386005226,0.0,-2.489311613341939,-0.019268417333564918,-0.0005059765518838055,-2.6169279722416205,-1.928704511133526,3.192264075307951,0.1167355922265173,0.8083191718827598,-0.07297433518425855,0.0612051130150044,-0.13081432973572965,1.3629568842388764,0.2915133791291218,-4.230075891164396,-1.9290138772097134,3.5548839960936487,0.14335558659367106,-0.04813890445487682,-1.5698888055557154,-0.006029358942590365
UIL,-0.021976074674556936,0.25773286565176484,-0.0645456663797382,0.09585962538582429,0.845026963329845,-0.8293352924337308,0.00025613293278332037,-0.021976074674556936,-8.485368422341768,-0.02551888838924287,-0.006770105476959216,-0.0980542755374709,0.0,-7.237739271371314,-0.02551888838924287,-0.02551888838924287,0.0,1.7075643498466506,0.013158774069545038,0.00034762604889064486,1.8072277225376951,1.630695922596553,-1.0086487612396147,-0.01607759816406158,-0.29244724752110796,-0.04752490297440992,0.04943520998615721,0.027520091782117218,-0.8768496637735589,-0.20028749009260577,1.120005758735574,-0.598242470755028,-1.5754636870392615,-0.022106935218324342,-0.03931407009791419,0.4895216943886868,-0.22134050574137545
