digraph {
        node [ shape = polygon,
            sides = 4,
            distortion = "0.0",
            orientation = "0.0",
            color = white,
            style = filled,
            fontname = "Helvetica-Outline" ];
    subgraph cluster1 {
	gdp_pc_unit [label="gdp pc unit";fillcolor="#ff03fc"];
	indicated_services_output_per_capita_1 [label="indicated services
output per capita 1";fillcolor="#ff03fc"];
	indicated_services_output_per_capita_2 [label="indicated services
output per capita 2";fillcolor="#ff03fc"];
}
subgraph cluster2 {
	unit_agricultural_input [label="unit agricultural
input";fillcolor="#ff06f9"];
	agricultural_input_per_hectare [label="agricultural input
per hectare";fillcolor="#ff06f9"];
	marginal_land_yield_multiplier_from_capital [label="marginal land yield
multiplier from
capital";fillcolor="#ff06f9"];
	jobs_per_hectare [label="jobs per hectare";fillcolor="#ff06f9"];
}
subgraph cluster3 {
	unit_population [label="unit population";fillcolor="#ff09f6"];
	population [label="population";fillcolor="#ff09f6"];
	fraction_of_population_urban [label="fraction of
population urban";fillcolor="#ff09f6"];
}
subgraph cluster4 {
	absorption_land_gha [label="absorption land gha";fillcolor="#ff0cf3"];
	ha_per_unit_of_pollution [label="ha per unit of
pollution";fillcolor="#ff0cf3"];
}
subgraph cluster5 {
	arable_land_in_gigahectares_gha [label="arable land in
gigahectares gha";fillcolor="#ff0ff0"];
	ha_per_gha [label="ha per gha";fillcolor="#ff0ff0"];
}
subgraph cluster6 {
	education_index [label="education index";fillcolor="#ff12ed"];
	human_welfare_index [label="human welfare index";fillcolor="#ff12ed"];
	life_expectancy_index [label="life expectancy
index";fillcolor="#ff12ed"];
}
subgraph cluster7 {
	gdp_index [label="gdp index";fillcolor="#ff15ea"];
	gdp_per_capita [label="gdp per capita";fillcolor="#ff15ea"];
	ref_hi_gdp [label="ref hi gdp";fillcolor="#ff15ea"];
	ref_lo_gdp [label="ref lo gdp";fillcolor="#ff15ea"];
}
subgraph cluster8 {
	human_ecological_footprint [label="human ecological
footprint";fillcolor="#ff18e7"];
	total_land [label="total land";fillcolor="#ff18e7"];
}
subgraph cluster9 {
	one_year [label="one year";fillcolor="#ff1be4"];
	mortality_65_plus [label="mortality 65 plus";fillcolor="#ff1be4"];
}
subgraph cluster10 {
	urban_land_gha [label="urban land gha";fillcolor="#ff1ee1"];
	urban_and_industrial_land [label="urban and industrial
land";fillcolor="#ff1ee1"];
	initial_urban_and_industrial_land [label="initial urban and
industrial land";fillcolor="#ff1ee1"];
}
subgraph cluster11 {
	arable_land [label="arable land";fillcolor="#ff20de"];
	initial_arable_land [label="initial arable land";fillcolor="#ff20de"];
}
subgraph cluster12 {
	development_cost_per_hectare [label="development cost per
hectare";fillcolor="#ff24db"];
	land_development_rate [label="land development
rate";fillcolor="#ff24db"];
	potentially_arable_land [label="potentially arable
land";fillcolor="#ff24db"];
	initial_potentially_arable_land [label="initial potentially
arable land";fillcolor="#ff24db"];
}
subgraph cluster13 {
	food [label="food";fillcolor="#ff27d8"];
	land_fraction_harvested [label="land fraction
harvested";fillcolor="#ff27d8"];
	processing_loss [label="processing loss";fillcolor="#ff27d8"];
	industrial_output [label="industrial output";fillcolor="#ff27d8"];
	capacity_utilization_fraction [label="capacity utilization
fraction";fillcolor="#ff27d8"];
	service_output [label="service output";fillcolor="#ff27d8"];
	fraction_of_output_in_agriculture [label="fraction of output
in agriculture";fillcolor="#ff27d8"];
	fraction_of_output_in_industry [label="fraction of output
in industry";fillcolor="#ff27d8"];
	fraction_of_output_in_services [label="fraction of output
in services";fillcolor="#ff27d8"];
	price_of_food [label="price of food";fillcolor="#ff27d8"];
}
subgraph cluster14 {
	food_per_capita [label="food per capita";fillcolor="#ff2ad5"];
	food_ratio [label="food ratio";fillcolor="#ff2ad5"];
	subsistence_food_per_capita [label="subsistence food per
capita";fillcolor="#ff2ad5"];
	lifetime_multiplier_from_food [label="lifetime multiplier
from food";fillcolor="#ff2ad5"];
}
subgraph cluster15 {
	land_fr_cult [label="land fr cult";fillcolor="#ff2cd2"];
	potentially_arable_land_total [label="potentially arable
land total";fillcolor="#ff2cd2"];
}
subgraph cluster16 {
	fraction_of_industrial_output_allocated_to_agriculture_1 [label="fraction of
industrial output
allocated to
agriculture 1";fillcolor="#ff30cf"];
	fraction_of_industrial_output_allocated_to_agriculture_2 [label="fraction of
industrial output
allocated to
agriculture 2";fillcolor="#ff30cf"];
	fraction_of_industrial_output_allocated_to_agriculture [label="fraction of
industrial output
allocated to
agriculture";fillcolor="#ff30cf"];
	indicated_food_per_capita [label="indicated food per
capita";fillcolor="#ff30cf"];
}
subgraph cluster17 {
	indicated_food_per_capita_1 [label="indicated food per
capita 1";fillcolor="#ff33cc"];
	indicated_food_per_capita_2 [label="indicated food per
capita 2";fillcolor="#ff33cc"];
	industrial_output_per_capita [label="industrial output
per capita";fillcolor="#ff33cc"];
}
subgraph cluster18 {
	total_agricultural_investment [label="total agricultural
investment";fillcolor="#ff36c9"];
	agricultural_inputs [label="agricultural inputs";fillcolor="#ff36c9"];
	current_agricultural_inputs [label="current agricultural
inputs";fillcolor="#ff36c9"];
}
subgraph cluster19 {
	average_life_agricultural_inputs [label="average life
agricultural inputs";fillcolor="#ff38c6"];
	average_life_of_agricultural_inputs_1 [label="average life of
agricultural inputs
1";fillcolor="#ff38c6"];
	average_life_of_agricultural_inputs_2 [label="average life of
agricultural inputs
2";fillcolor="#ff38c6"];
}
subgraph cluster20 {
	desired_food_ratio [label="desired food ratio";fillcolor="#ff3cc3"];
	land_yield_technology_change_rate_multiplier [label="land yield
technology change
rate multiplier";fillcolor="#ff3cc3"];
}
subgraph cluster21 {
	ind_out_in_1970 [label="ind out in 1970";fillcolor="#ff3fc0"];
	land_yield_multipler_from_air_pollution_1 [label="land yield multipler
from air pollution 1";fillcolor="#ff3fc0"];
	land_yield_multiplier_from_air_pollution_2 [label="land yield
multiplier from air
pollution 2";fillcolor="#ff3fc0"];
	land_yield_multiplier_from_air_pollution [label="land yield
multiplier from air
pollution";fillcolor="#ff3fc0"];
	air_pollution_policy_implementation_time [label="air pollution policy
implementation time";fillcolor="#ff3fc0"];
}
subgraph cluster22 {
	land_yield [label="land yield";fillcolor="#ff41bd"];
	land_yield_multiplier_from_capital [label="land yield
multiplier from
capital";fillcolor="#ff41bd"];
	marginal_productivity_of_agricultural_inputs [label="marginal
productivity of
agricultural inputs";fillcolor="#ff41bd"];
}
subgraph cluster23 {
	land_yield_factor_1 [label="land yield factor 1";fillcolor="#ff45ba"];
	land_yield_multiplier_from_technology [label="land yield
multiplier from
technology";fillcolor="#ff45ba"];
	industrial_capital_output_ratio_multiplier_from_land_yield_technology [label="industrial capital
output ratio
multiplier from land
yield technology";fillcolor="#ff45ba"];
}
subgraph cluster24 {
	land_yield_factor_2 [label="land yield factor 2";fillcolor="#ff48b7"];
	land_yield_technology [label="land yield
technology";fillcolor="#ff48b7"];
	technology_development_delay [label="technology
development delay";fillcolor="#ff48b7"];
}
subgraph cluster25 {
	land_yield_technology_change_rate [label="land yield
technology change
rate";fillcolor="#ff4bb3"];
	industrial_capital_output_ratio_1 [label="industrial capital
output ratio 1";fillcolor="#ff4bb3"];
	industrial_capital_output_ratio [label="industrial capital
output ratio";fillcolor="#ff4bb3"];
	fraction_of_industrial_output_allocated_to_services_1 [label="fraction of
industrial output
allocated to
services 1";fillcolor="#ff4bb3"];
	fraction_of_industrial_output_allocated_to_services_2 [label="fraction of
industrial output
allocated to
services 2";fillcolor="#ff4bb3"];
	fraction_of_industrial_output_allocated_to_services [label="fraction of
industrial output
allocated to
services";fillcolor="#ff4bb3"];
	indicated_services_output_per_capita [label="indicated services
output per capita";fillcolor="#ff4bb3"];
	service_output_per_capita [label="service output per
capita";fillcolor="#ff4bb3"];
	policy_year [label="policy year";fillcolor="#ff4bb3"];
	persistent_pollution_technology_change_rate [label="persistent pollution
technology change
rate";fillcolor="#ff4bb3"];
	resource_use_factor_1 [label="resource use factor
1";fillcolor="#ff4bb3"];
	resource_technology_change_rate [label="resource technology
change rate";fillcolor="#ff4bb3"];
	resource_use_factor [label="resource use factor";fillcolor="#ff4bb3"];
	time [label="time";fillcolor="#ff4bb3"];
}
subgraph cluster26 {
	average_life_of_land [label="average life of land";fillcolor="#ff4eb1"];
	average_life_of_land_normal [label="average life of land
normal";fillcolor="#ff4eb1"];
	land_erosion_rate [label="land erosion rate";fillcolor="#ff4eb1"];
}
subgraph cluster27 {
	land_removal_for_urban_and_industrial_use [label="land removal for
urban and industrial
use";fillcolor="#ff51ae"];
	urban_and_industrial_land_development_time [label="urban and industrial
land development
time";fillcolor="#ff51ae"];
}
subgraph cluster28 {
	land_life_multiplier_from_land_yield_1 [label="land life multiplier
from land yield 1";fillcolor="#ff54ab"];
	land_life_multiplier_from_land_yield_2 [label="land life multiplier
from land yield 2";fillcolor="#ff54ab"];
	land_life_multiplier_from_land_yield [label="land life multiplier
from land yield";fillcolor="#ff54ab"];
	land_life_policy_implementation_time [label="land life policy
implementation time";fillcolor="#ff54ab"];
	inherent_land_fertility [label="inherent land
fertility";fillcolor="#ff54ab"];
}
subgraph cluster29 {
	urban_and_industrial_land_required_per_capita [label="urban and industrial
land required per
capita";fillcolor="#ff57a8"];
	urban_and_industrial_land_required [label="urban and industrial
land required";fillcolor="#ff57a8"];
}
subgraph cluster30 {
	land_fertility_degredation [label="land fertility
degredation";fillcolor="#ff59a5"];
	land_fertility_degredation_rate [label="land fertility
degredation rate";fillcolor="#ff59a5"];
}
subgraph cluster31 {
	land_fertility [label="land fertility";fillcolor="#ff5da2"];
	initial_land_fertility [label="initial land
fertility";fillcolor="#ff5da2"];
}
subgraph cluster32 {
	land_fertility_regeneration [label="land fertility
regeneration";fillcolor="#ff609f"];
	land_fertility_regeneration_time [label="land fertility
regeneration time";fillcolor="#ff609f"];
}
subgraph cluster33 {
	perceived_food_ratio [label="perceived food ratio";fillcolor="#ff639c"];
	food_shortage_perception_delay [label="food shortage
perception delay";fillcolor="#ff639c"];
	fraction_of_agricultural_inputs_for_land_maintenance [label="fraction of
agricultural inputs
for land maintenance";fillcolor="#ff639c"];
}
subgraph cluster34 {
	fraction_of_agricultural_inputs_allocated_to_land_development [label="fraction of
agricultural inputs
allocated to land
development";fillcolor="#ff6699"];
	marginal_productivity_of_land_development [label="marginal
productivity of land
development";fillcolor="#ff6699"];
	social_discount [label="social discount";fillcolor="#ff6699"];
}
subgraph cluster35 {
	industrial_capital_output_ratio_multiplier_from_resource_conservation_technology [label="industrial capital
output ratio
multiplier from
resource
conservation
technology";fillcolor="#ff6996"];
	industrial_capital_output_ratio_multiplier_from_pollution_technology [label="industrial capital
output ratio
multiplier from
pollution technology";fillcolor="#ff6996"];
	industrial_capital_output_ratio_2 [label="industrial capital
output ratio 2";fillcolor="#ff6996"];
}
subgraph cluster36 {
	fraction_of_industrial_output_allocated_to_investment [label="fraction of
industrial output
allocated to
investment";fillcolor="#ff6c93"];
	industrial_capital_investment [label="industrial capital
investment";fillcolor="#ff6c93"];
}
subgraph cluster37 {
	industrial_capital_depreciation [label="industrial capital
depreciation";fillcolor="#ff6f90"];
	industrial_capital [label="industrial capital";fillcolor="#ff6f90"];
	initial_industrial_capital [label="initial industrial
capital";fillcolor="#ff6f90"];
}
subgraph cluster38 {
	industrial_output_per_capita_desired [label="industrial output
per capita desired";fillcolor="#ff718d"];
	fraction_of_industrial_output_allocated_to_consumption_variable [label="fraction of
industrial output
allocated to
consumption variable";fillcolor="#ff718d"];
}
subgraph cluster39 {
	average_life_of_industrial_capital_1 [label="average life of
industrial capital 1";fillcolor="#ff758a"];
	average_life_of_industrial_capital_2 [label="average life of
industrial capital 2";fillcolor="#ff758a"];
	average_life_of_industrial_capital [label="average life of
industrial capital";fillcolor="#ff758a"];
}
subgraph cluster40 {
	fraction_of_industrial_output_allocated_to_consumption [label="fraction of
industrial output
allocated to
consumption";fillcolor="#ff7887"];
	industrial_equilibrium_time [label="industrial
equilibrium time";fillcolor="#ff7887"];
}
subgraph cluster41 {
	delayed_labor_utilization_fraction [label="delayed labor
utilization fraction";fillcolor="#ff7b83"];
	labor_utilization_fraction [label="labor utilization
fraction";fillcolor="#ff7b83"];
	labor_utilization_fraction_delay_time [label="labor utilization
fraction delay time";fillcolor="#ff7b83"];
}
subgraph cluster42 {
	jobs [label="jobs";fillcolor="#ff7e81"];
	jobs_per_industrial_capital_unit [label="jobs per industrial
capital unit";fillcolor="#ff7e81"];
	potential_jobs_agricultural_sector [label="potential jobs
agricultural sector";fillcolor="#ff7e81"];
	potential_jobs_industrial_sector [label="potential jobs
industrial sector";fillcolor="#ff7e81"];
}
subgraph cluster43 {
	jobs_per_service_capital_unit [label="jobs per service
capital unit";fillcolor="#ff817e"];
	potential_jobs_service_sector [label="potential jobs
service sector";fillcolor="#ff817e"];
}
subgraph cluster44 {
	labor_force [label="labor force";fillcolor="#ff837b"];
	labor_force_participation_fraction [label="labor force
participation
fraction";fillcolor="#ff837b"];
}
subgraph cluster45 {
	average_life_of_service_capital_1 [label="average life of
service capital 1";fillcolor="#ff8778"];
	average_life_of_service_capital_2 [label="average life of
service capital 2";fillcolor="#ff8778"];
	average_life_of_service_capital [label="average life of
service capital";fillcolor="#ff8778"];
	service_capital_depreciation [label="service capital
depreciation";fillcolor="#ff8778"];
}
subgraph cluster46 {
	service_capital_output_ratio_1 [label="service capital
output ratio 1";fillcolor="#ff8a75"];
	service_capital_output_ratio_2 [label="service capital
output ratio 2";fillcolor="#ff8a75"];
	service_capital_output_ratio [label="service capital
output ratio";fillcolor="#ff8a75"];
}
subgraph cluster47 {
	service_capital_investment [label="service capital
investment";fillcolor="#ff8d71"];
	service_capital [label="service capital";fillcolor="#ff8d71"];
	initial_service_capital [label="initial service
capital";fillcolor="#ff8d71"];
}
subgraph cluster48 {
	agricultural_material_toxicity_index [label="agricultural
material toxicity
index";fillcolor="#ff906f"];
	fraction_of_agricultural_inputs_from_persistent_materials [label="fraction of
agricultural inputs
from persistent
materials";fillcolor="#ff906f"];
	persistent_pollution_generation_agriculture [label="persistent pollution
generation
agriculture";fillcolor="#ff906f"];
}
subgraph cluster49 {
	assimilation_half_life [label="assimilation half
life";fillcolor="#ff936c"];
	assimilation_half_life_in_1970 [label="assimilation half
life in 1970";fillcolor="#ff936c"];
	assimilation_half_life_multiplier [label="assimilation half
life multiplier";fillcolor="#ff936c"];
}
subgraph cluster50 {
	desired_persistent_pollution_index [label="desired persistent
pollution index";fillcolor="#ff9669"];
	persistent_pollution_technology_change_multiplier [label="persistent pollution
technology change
multiplier";fillcolor="#ff9669"];
}
subgraph cluster51 {
	fraction_of_resources_from_persistent_materials [label="fraction of
resources from
persistent materials";fillcolor="#ff9966"];
	industrial_material_toxicity_index [label="industrial material
toxicity index";fillcolor="#ff9966"];
	industrial_material_emissions_factor [label="industrial material
emissions factor";fillcolor="#ff9966"];
	persistent_pollution_generation_industry [label="persistent pollution
generation industry";fillcolor="#ff9966"];
}
subgraph cluster52 {
	persistent_pollution_generation_factor_1 [label="persistent pollution
generation factor 1";fillcolor="#ff9c62"];
	persistent_pollution_generation_factor [label="persistent pollution
generation factor";fillcolor="#ff9c62"];
	persistent_pollution_intensity_industry [label="persistent pollution
intensity industry";fillcolor="#ff9c62"];
}
subgraph cluster53 {
	persistent_pollution_generation_factor_2 [label="persistent pollution
generation factor 2";fillcolor="#ff9f60"];
	persistent_pollution_technology [label="persistent pollution
technology";fillcolor="#ff9f60"];
}
subgraph cluster54 {
	persistent_pollution [label="persistent pollution";fillcolor="#ffa25d"];
	initial_persistent_pollution [label="initial persistent
pollution";fillcolor="#ffa25d"];
	persistent_pollution_assimilation_rate [label="persistent pollution
assimilation rate";fillcolor="#ffa25d"];
}
subgraph cluster55 {
	persistent_pollution_generation_rate [label="persistent pollution
generation rate";fillcolor="#ffa559"];
	persistent_pollution_appearance_rate [label="persistent pollution
appearance rate";fillcolor="#ffa559"];
	persistent_pollution_transmission_delay [label="persistent pollution
transmission delay";fillcolor="#ffa559"];
}
subgraph cluster56 {
	persistent_pollution_in_1970 [label="persistent pollution
in 1970";fillcolor="#ffa857"];
	persistent_pollution_index [label="persistent pollution
index";fillcolor="#ffa857"];
	lifetime_multiplier_from_persistent_pollution [label="lifetime multiplier
from persistent
pollution";fillcolor="#ffa857"];
}
subgraph cluster57 {
	deaths_0_to_14 [label="deaths 0 to 14";fillcolor="#ffab54"];
	mortality_0_to_14 [label="mortality 0 to 14";fillcolor="#ffab54"];
}
subgraph cluster58 {
	deaths_15_to_44 [label="deaths 15 to 44";fillcolor="#ffae51"];
	mortality_15_to_44 [label="mortality 15 to 44";fillcolor="#ffae51"];
}
subgraph cluster59 {
	deaths_45_to_64 [label="deaths 45 to 64";fillcolor="#ffb14e"];
	maturation_64_to_65 [label="maturation 64 to 65";fillcolor="#ffb14e"];
	mortality_45_to_64 [label="mortality 45 to 64";fillcolor="#ffb14e"];
}
subgraph cluster60 {
	deaths_65_plus [label="deaths 65 plus";fillcolor="#ffb34b"];
	population_65_plus [label="population 65 plus";fillcolor="#ffb34b"];
	initial_population_65_plus [label="initial population
65 plus";fillcolor="#ffb34b"];
}
subgraph cluster61 {
	maturation_14_to_15 [label="maturation 14 to 15";fillcolor="#ffb748"];
	population_0_to_14 [label="population 0 to 14";fillcolor="#ffb748"];
	initial_population_0_to_14 [label="initial population 0
to 14";fillcolor="#ffb748"];
}
subgraph cluster62 {
	maturation_44_to_45 [label="maturation 44 to 45";fillcolor="#ffba45"];
	population_45_to_64 [label="population 45 to 64";fillcolor="#ffba45"];
	initial_population_54_to_64 [label="initial population
54 to 64";fillcolor="#ffba45"];
}
subgraph cluster63 {
	population_15_to_44 [label="population 15 to 44";fillcolor="#ffbd41"];
	initial_population_15_to_44 [label="initial population
15 to 44";fillcolor="#ffbd41"];
}
subgraph cluster64 {
	average_industrial_output_per_capita [label="average industrial
output per capita";fillcolor="#ffc03f"];
	income_expectation_averaging_time [label="income expectation
averaging time";fillcolor="#ffc03f"];
}
subgraph cluster65 {
	birth_rate [label="birth rate";fillcolor="#ffc33c"];
	births [label="births";fillcolor="#ffc33c"];
	reproductive_lifetime [label="reproductive
lifetime";fillcolor="#ffc33c"];
	population_equilibrium_time [label="population
equilibrium time";fillcolor="#ffc33c"];
}
subgraph cluster66 {
	completed_multiplier_from_perceived_lifetime [label="completed multiplier
from perceived
lifetime";fillcolor="#ffc638"];
	lifetime_perception_delay [label="lifetime perception
delay";fillcolor="#ffc638"];
	perceived_life_expectancy [label="perceived life
expectancy";fillcolor="#ffc638"];
}
subgraph cluster67 {
	delayed_industrial_output_per_capita [label="delayed industrial
output per capita";fillcolor="#ffc936"];
	social_family_size_normal [label="social family size
normal";fillcolor="#ffc936"];
	social_adjustment_delay [label="social adjustment
delay";fillcolor="#ffc936"];
}
subgraph cluster68 {
	desired_completed_family_size [label="desired completed
family size";fillcolor="#ffcc32"];
	desired_completed_family_size_normal [label="desired completed
family size normal";fillcolor="#ffcc32"];
	zero_population_growth_time [label="zero population
growth time";fillcolor="#ffcc32"];
}
subgraph cluster69 {
	desired_total_fertility [label="desired total
fertility";fillcolor="#ffcf30"];
	need_for_fertility_control [label="need for fertility
control";fillcolor="#ffcf30"];
}
subgraph cluster70 {
	family_income_expectation [label="family income
expectation";fillcolor="#ffd22d"];
	family_response_to_social_norm [label="family response to
social norm";fillcolor="#ffd22d"];
}
subgraph cluster71 {
	fecundity_multiplier [label="fecundity multiplier";fillcolor="#ffd529"];
	maximum_total_fertility [label="maximum total
fertility";fillcolor="#ffd529"];
	maximum_total_fertility_normal [label="maximum total
fertility normal";fillcolor="#ffd529"];
}
subgraph cluster72 {
	fertility_control_allocation_per_capita [label="fertility control
allocation per
capita";fillcolor="#ffd827"];
	fraction_services_allocated_to_fertility_control [label="fraction services
allocated to
fertility control";fillcolor="#ffd827"];
}
subgraph cluster73 {
	fertility_control_effectiveness [label="fertility control
effectiveness";fillcolor="#ffdb24"];
	fertility_control_effectiveness_time [label="fertility control
effectiveness time";fillcolor="#ffdb24"];
	total_fertility [label="total fertility";fillcolor="#ffdb24"];
}
subgraph cluster74 {
	fertility_control_facilities_per_capita [label="fertility control
facilities per
capita";fillcolor="#ffde20"];
	health_services_impact_delay [label="health services
impact delay";fillcolor="#ffde20"];
}
subgraph cluster75 {
	crowding_multiplier_from_industry [label="crowding multiplier
from industry";fillcolor="#ffe11e"];
	lifetime_multiplier_from_crowding [label="lifetime multiplier
from crowding";fillcolor="#ffe11e"];
}
subgraph cluster76 {
	death_rate [label="death rate";fillcolor="#ffe31b"];
	deaths [label="deaths";fillcolor="#ffe31b"];
}
subgraph cluster77 {
	effective_health_services_per_capita [label="effective health
services per capita";fillcolor="#ffe718"];
	health_services_per_capita [label="health services per
capita";fillcolor="#ffe718"];
	lifetime_multiplier_from_health_services_1 [label="lifetime multiplier
from health services
1";fillcolor="#ffe718"];
}
subgraph cluster78 {
	life_expectancy_normal [label="life expectancy
normal";fillcolor="#ffea15"];
	life_expectancy [label="life expectancy";fillcolor="#ffea15"];
}
subgraph cluster79 {
	lifetime_multiplier_from_health_services [label="lifetime multiplier
from health services";fillcolor="#ffed11"];
	lifetime_multiplier_from_health_services_2 [label="lifetime multiplier
from health services
2";fillcolor="#ffed11"];
}
subgraph cluster80 {
	desired_resource_use_rate [label="desired resource use
rate";fillcolor="#fff00f"];
	resource_technology_change_rate_multiplier [label="resource technology
change rate
multiplier";fillcolor="#fff00f"];
}
subgraph cluster81 {
	fraction_of_resources_remaining [label="fraction of
resources remaining";fillcolor="#fff30c"];
	initial_nonrenewable_resources [label="initial nonrenewable
resources";fillcolor="#fff30c"];
	nonrenewable_resources [label="nonrenewable
resources";fillcolor="#fff30c"];
}
subgraph cluster82 {
	resource_usage_rate [label="resource usage rate";fillcolor="#fff608"];
	per_capita_resource_use_multiplier [label="per capita resource
use multiplier";fillcolor="#fff608"];
	resource_use_intensity [label="resource use
intensity";fillcolor="#fff608"];
}
subgraph cluster83 {
	fraction_of_capital_allocated_to_obtaining_resources_1 [label="fraction of capital
allocated to
obtaining resources
1";fillcolor="#fff906"];
	fraction_of_capital_allocated_to_obtaining_resources_2 [label="fraction of capital
allocated to
obtaining resources
2";fillcolor="#fff906"];
	fraction_of_industrial_capital_allocated_to_obtaining_resources [label="fraction of
industrial capital
allocated to
obtaining resources";fillcolor="#fff906"];
	fraction_of_industrial_capital_allocated_to_obtaining_resources_switch_time [label="fraction of
industrial capital
allocated to
obtaining resources
switch time";fillcolor="#fff906"];
}
subgraph cluster84 {
	resource_use_fact_2 [label="resource use fact 2";fillcolor="#fffc02"];
	resource_conservation_technology [label="resource
conservation
technology";fillcolor="#fffc02"];
}
subgraph cluster85 {
	consumed_industrial_output [label="consumed industrial
output";fillcolor="#ffff00"];
	consumed_industrial_output_per_capita [label="consumed industrial
output per capita";fillcolor="#ffff00"];
}
ind_out_in_1970 -> land_yield_multipler_from_air_pollution_1
time -> industrial_capital_output_ratio
persistent_pollution_appearance_rate -> persistent_pollution
industrial_output -> fraction_of_output_in_services
time -> land_yield_multiplier_from_air_pollution
persistent_pollution_generation_factor -> persistent_pollution_generation_rate
arable_land -> land_erosion_rate
time -> average_life_of_industrial_capital
indicated_services_output_per_capita_1 -> indicated_services_output_per_capita
fraction_of_agricultural_inputs_for_land_maintenance -> agricultural_input_per_hectare
gdp_pc_unit -> crowding_multiplier_from_industry
land_yield_multiplier_from_technology -> industrial_capital_output_ratio_multiplier_from_land_yield_technology
agricultural_material_toxicity_index -> persistent_pollution_generation_agriculture
one_year -> life_expectancy_index
inherent_land_fertility -> land_life_multiplier_from_land_yield_1
industrial_output -> fraction_of_output_in_industry
population_15_to_44 -> births
land_life_multiplier_from_land_yield_2 -> land_life_multiplier_from_land_yield
maturation_64_to_65 -> population_45_to_64
land_yield -> food
maximum_total_fertility -> need_for_fertility_control
food -> food_per_capita
gdp_pc_unit -> indicated_services_output_per_capita_2
land_fraction_harvested -> food
gdp_pc_unit -> fertility_control_effectiveness
policy_year -> persistent_pollution_generation_factor
desired_completed_family_size -> desired_total_fertility
agricultural_input_per_hectare -> jobs_per_hectare
lifetime_multiplier_from_health_services_2 -> lifetime_multiplier_from_health_services
fraction_of_industrial_output_allocated_to_agriculture -> fraction_of_industrial_output_allocated_to_investment
service_capital_output_ratio_2 -> service_capital_output_ratio
population_65_plus -> population
subsistence_food_per_capita -> lifetime_multiplier_from_food
ha_per_unit_of_pollution -> absorption_land_gha
gdp_pc_unit -> indicated_food_per_capita_1
assimilation_half_life -> persistent_pollution_assimilation_rate
time -> fraction_of_industrial_output_allocated_to_services
population_45_to_64 -> population
per_capita_resource_use_multiplier -> resource_usage_rate
service_output_per_capita -> fraction_of_industrial_output_allocated_to_services_1
one_year -> mortality_15_to_44
lifetime_multiplier_from_food -> life_expectancy
consumed_industrial_output -> consumed_industrial_output_per_capita
time -> fraction_of_industrial_capital_allocated_to_obtaining_resources
gdp_per_capita -> gdp_index
arable_land -> land_fr_cult
income_expectation_averaging_time -> average_industrial_output_per_capita
mortality_45_to_64 -> deaths_45_to_64
policy_year -> fraction_of_industrial_output_allocated_to_agriculture
capacity_utilization_fraction -> industrial_output
service_capital -> potential_jobs_service_sector
persistent_pollution_index -> persistent_pollution_technology_change_multiplier
land_yield -> land_life_multiplier_from_land_yield_2
persistent_pollution_generation_factor -> persistent_pollution_intensity_industry
industrial_output_per_capita -> fraction_of_industrial_output_allocated_to_consumption_variable
population -> death_rate
maturation_64_to_65 -> population_65_plus
persistent_pollution_technology_change_multiplier -> persistent_pollution_technology_change_rate
arable_land -> potential_jobs_agricultural_sector
industrial_output_per_capita -> delayed_industrial_output_per_capita
ref_hi_gdp -> gdp_index
population -> consumed_industrial_output_per_capita
land_life_multiplier_from_land_yield_1 -> land_life_multiplier_from_land_yield
population_15_to_44 -> deaths_15_to_44
deaths_0_to_14 -> deaths
persistent_pollution_technology -> persistent_pollution_technology_change_rate
fraction_of_industrial_output_allocated_to_agriculture -> total_agricultural_investment
land_fertility_regeneration -> land_fertility
lifetime_multiplier_from_persistent_pollution -> life_expectancy
urban_and_industrial_land -> urban_land_gha
food -> fraction_of_output_in_industry
industrial_capital_output_ratio_multiplier_from_land_yield_technology -> industrial_capital_output_ratio_2
marginal_land_yield_multiplier_from_capital -> marginal_productivity_of_agricultural_inputs
industrial_output_per_capita -> indicated_food_per_capita_1
industrial_material_emissions_factor -> persistent_pollution_generation_industry
land_yield_factor_1 -> land_yield_multiplier_from_technology
service_output_per_capita -> fertility_control_allocation_per_capita
fraction_of_resources_remaining -> fraction_of_capital_allocated_to_obtaining_resources_1
population_45_to_64 -> labor_force
fraction_services_allocated_to_fertility_control -> fertility_control_allocation_per_capita
deaths_65_plus -> population_65_plus
population -> urban_and_industrial_land_required
initial_population_15_to_44 -> population_15_to_44
resource_conservation_technology -> resource_use_fact_2
life_expectancy -> perceived_life_expectancy
lifetime_multiplier_from_health_services_1 -> lifetime_multiplier_from_health_services
current_agricultural_inputs -> agricultural_inputs
service_output -> service_output_per_capita
gdp_pc_unit -> gdp_per_capita
arable_land -> persistent_pollution_generation_agriculture
need_for_fertility_control -> fraction_services_allocated_to_fertility_control
fraction_of_industrial_output_allocated_to_agriculture_2 -> fraction_of_industrial_output_allocated_to_agriculture
land_yield -> marginal_productivity_of_agricultural_inputs
technology_development_delay -> resource_use_fact_2
technology_development_delay -> persistent_pollution_generation_factor_2
indicated_food_per_capita_1 -> indicated_food_per_capita
delayed_industrial_output_per_capita -> social_family_size_normal
land_yield_multiplier_from_capital -> land_yield
absorption_land_gha -> human_ecological_footprint
perceived_food_ratio -> fraction_of_agricultural_inputs_for_land_maintenance
lifetime_multiplier_from_health_services -> life_expectancy
time -> persistent_pollution_technology_change_rate
land_fertility -> land_fertility_degredation
land_yield -> marginal_productivity_of_land_development
family_income_expectation -> family_response_to_social_norm
ha_per_gha -> arable_land_in_gigahectares_gha
policy_year -> land_yield_technology_change_rate
persistent_pollution -> persistent_pollution_index
potentially_arable_land_total -> land_fr_cult
industrial_capital_output_ratio_1 -> industrial_capital_output_ratio
population -> persistent_pollution_generation_industry
urban_and_industrial_land_required_per_capita -> urban_and_industrial_land_required
industrial_output -> resource_use_intensity
food_ratio -> perceived_food_ratio
fraction_of_resources_from_persistent_materials -> persistent_pollution_generation_industry
education_index -> human_welfare_index
unit_agricultural_input -> land_yield_multiplier_from_capital
land_yield_multiplier_from_air_pollution_2 -> land_yield_multiplier_from_air_pollution
industrial_capital_output_ratio -> industrial_output
policy_year -> resource_technology_change_rate
persistent_pollution_generation_industry -> persistent_pollution_intensity_industry
population_0_to_14 -> deaths_0_to_14
potentially_arable_land_total -> development_cost_per_hectare
resource_use_factor_1 -> resource_use_factor
land_life_multiplier_from_land_yield -> average_life_of_land
resource_conservation_technology -> resource_technology_change_rate
social_discount -> marginal_productivity_of_land_development
zero_population_growth_time -> desired_completed_family_size
desired_total_fertility -> total_fertility
family_response_to_social_norm -> desired_completed_family_size
fraction_of_industrial_output_allocated_to_consumption -> consumed_industrial_output
fraction_of_agricultural_inputs_allocated_to_land_development -> current_agricultural_inputs
life_expectancy -> mortality_0_to_14
average_life_of_industrial_capital -> industrial_capital_depreciation
life_expectancy_normal -> life_expectancy
policy_year -> industrial_capital_output_ratio
population_65_plus -> deaths_65_plus
potential_jobs_industrial_sector -> jobs
gdp_pc_unit -> lifetime_multiplier_from_health_services_1
time -> fraction_of_industrial_output_allocated_to_consumption
fraction_of_industrial_output_allocated_to_services -> service_capital_investment
resource_use_factor -> resource_usage_rate
persistent_pollution_generation_rate -> absorption_land_gha
population -> birth_rate
fraction_of_agricultural_inputs_for_land_maintenance -> land_fertility_regeneration_time
industrial_output_per_capita -> average_industrial_output_per_capita
land_yield_multiplier_from_air_pollution -> land_yield
initial_nonrenewable_resources -> fraction_of_resources_remaining
food_per_capita -> fraction_of_industrial_output_allocated_to_agriculture_2
jobs_per_industrial_capital_unit -> potential_jobs_industrial_sector
service_output -> fraction_of_output_in_industry
fraction_of_industrial_output_allocated_to_consumption_variable -> fraction_of_industrial_output_allocated_to_consumption
unit_agricultural_input -> jobs_per_hectare
industrial_output_per_capita -> family_income_expectation
resource_technology_change_rate_multiplier -> resource_technology_change_rate
fraction_of_industrial_output_allocated_to_investment -> industrial_capital_investment
average_life_of_industrial_capital_2 -> average_life_of_industrial_capital
initial_population_65_plus -> population_65_plus
industrial_output -> persistent_pollution_intensity_industry
crowding_multiplier_from_industry -> lifetime_multiplier_from_crowding
agricultural_inputs -> agricultural_input_per_hectare
fraction_of_capital_allocated_to_obtaining_resources_1 -> fraction_of_industrial_capital_allocated_to_obtaining_resources
one_year -> mortality_65_plus
fertility_control_effectiveness_time -> fertility_control_effectiveness
initial_persistent_pollution -> persistent_pollution
potential_jobs_service_sector -> jobs
population -> service_output_per_capita
population_45_to_64 -> maturation_64_to_65
lifetime_perception_delay -> perceived_life_expectancy
lifetime_multiplier_from_crowding -> life_expectancy
agricultural_input_per_hectare -> marginal_land_yield_multiplier_from_capital
delayed_labor_utilization_fraction -> capacity_utilization_fraction
maturation_44_to_45 -> population_15_to_44
gdp_pc_unit -> indicated_food_per_capita_2
industrial_capital_depreciation -> industrial_capital
mortality_65_plus -> deaths_65_plus
average_life_of_land_normal -> average_life_of_land
service_output_per_capita -> fraction_of_industrial_output_allocated_to_services_2
development_cost_per_hectare -> land_development_rate
service_capital_output_ratio -> service_output
land_development_rate -> arable_land
resource_technology_change_rate -> resource_conservation_technology
life_expectancy -> mortality_45_to_64
food_per_capita -> lifetime_multiplier_from_food
time -> average_life_agricultural_inputs
land_yield_technology -> land_yield_technology_change_rate
development_cost_per_hectare -> marginal_productivity_of_land_development
inherent_land_fertility -> land_life_multiplier_from_land_yield_2
fraction_of_industrial_output_allocated_to_services_2 -> fraction_of_industrial_output_allocated_to_services
policy_year -> average_life_of_service_capital
service_capital -> service_output
time -> persistent_pollution_generation_factor
land_yield_multipler_from_air_pollution_1 -> land_yield_multiplier_from_air_pollution
life_expectancy -> fecundity_multiplier
average_life_of_agricultural_inputs_1 -> average_life_agricultural_inputs
industrial_capital_investment -> industrial_capital
persistent_pollution_technology -> persistent_pollution_generation_factor_2
jobs_per_service_capital_unit -> potential_jobs_service_sector
fraction_of_capital_allocated_to_obtaining_resources_2 -> fraction_of_industrial_capital_allocated_to_obtaining_resources
mortality_0_to_14 -> deaths_0_to_14
average_life_of_service_capital_1 -> average_life_of_service_capital
industrial_output_per_capita_desired -> fraction_of_industrial_output_allocated_to_consumption_variable
service_capital_investment -> service_capital
indicated_food_per_capita -> fraction_of_industrial_output_allocated_to_agriculture_2
jobs -> labor_utilization_fraction
policy_year -> fraction_of_industrial_output_allocated_to_services
initial_potentially_arable_land -> potentially_arable_land
time -> resource_use_factor
resource_usage_rate -> nonrenewable_resources
agricultural_input_per_hectare -> land_yield_multiplier_from_capital
arable_land -> agricultural_input_per_hectare
completed_multiplier_from_perceived_lifetime -> desired_total_fertility
desired_food_ratio -> land_yield_technology_change_rate_multiplier
industrial_output -> industrial_output_per_capita
effective_health_services_per_capita -> lifetime_multiplier_from_health_services_1
price_of_food -> fraction_of_output_in_services
time -> lifetime_multiplier_from_health_services
health_services_impact_delay -> fertility_control_facilities_per_capita
deaths_65_plus -> deaths
persistent_pollution_assimilation_rate -> persistent_pollution
policy_year -> persistent_pollution_technology_change_rate
industrial_capital_output_ratio_2 -> industrial_capital_output_ratio
fraction_of_resources_remaining -> fraction_of_capital_allocated_to_obtaining_resources_2
food -> fraction_of_output_in_agriculture
service_output -> fraction_of_output_in_agriculture
total_fertility -> births
births -> population_0_to_14
price_of_food -> fraction_of_output_in_industry
population -> fraction_of_population_urban
mortality_15_to_44 -> deaths_15_to_44
reproductive_lifetime -> births
fraction_of_agricultural_inputs_from_persistent_materials -> persistent_pollution_generation_agriculture
indicated_services_output_per_capita -> fraction_of_industrial_output_allocated_to_services_2
time -> service_capital_output_ratio
resource_usage_rate -> resource_technology_change_rate_multiplier
unit_population -> fraction_of_population_urban
social_adjustment_delay -> delayed_industrial_output_per_capita
resource_usage_rate -> resource_use_intensity
agricultural_input_per_hectare -> persistent_pollution_generation_agriculture
indicated_services_output_per_capita_2 -> indicated_services_output_per_capita
average_life_of_service_capital_2 -> average_life_of_service_capital
industrial_output_per_capita -> indicated_services_output_per_capita_2
industrial_output -> total_agricultural_investment
arable_land -> food
health_services_impact_delay -> effective_health_services_per_capita
deaths_45_to_64 -> deaths
fraction_of_industrial_output_allocated_to_services_1 -> fraction_of_industrial_output_allocated_to_services
indicated_services_output_per_capita -> fraction_of_industrial_output_allocated_to_services_1
initial_land_fertility -> land_fertility
policy_year -> indicated_food_per_capita
time -> land_yield_multiplier_from_technology
desired_total_fertility -> need_for_fertility_control
one_year -> completed_multiplier_from_perceived_lifetime
gdp_index -> human_welfare_index
one_year -> mortality_45_to_64
land_removal_for_urban_and_industrial_use -> arable_land
persistent_pollution_transmission_delay -> persistent_pollution_appearance_rate
industrial_output_per_capita -> gdp_per_capita
effective_health_services_per_capita -> lifetime_multiplier_from_health_services_2
fraction_of_population_urban -> lifetime_multiplier_from_crowding
subsistence_food_per_capita -> food_ratio
land_life_policy_implementation_time -> land_life_multiplier_from_land_yield
service_capital -> service_capital_depreciation
time -> births
ha_per_gha -> urban_land_gha
policy_year -> average_life_agricultural_inputs
maturation_14_to_15 -> population_15_to_44
initial_service_capital -> service_capital
maturation_44_to_45 -> population_45_to_64
land_erosion_rate -> arable_land
deaths_45_to_64 -> population_45_to_64
gdp_pc_unit -> per_capita_resource_use_multiplier
population_0_to_14 -> population
population -> resource_usage_rate
fraction_of_industrial_capital_allocated_to_obtaining_resources_switch_time -> fraction_of_industrial_capital_allocated_to_obtaining_resources
food_per_capita -> food_ratio
unit_agricultural_input -> marginal_land_yield_multiplier_from_capital
persistent_pollution_generation_factor_1 -> persistent_pollution_generation_factor
fraction_of_industrial_output_allocated_to_consumption -> fraction_of_industrial_output_allocated_to_investment
per_capita_resource_use_multiplier -> persistent_pollution_generation_industry
industrial_output -> industrial_capital_investment
land_fertility_degredation_rate -> land_fertility_degredation
food_ratio -> land_yield_technology_change_rate_multiplier
policy_year -> average_life_of_industrial_capital
one_year -> mortality_0_to_14
industrial_output -> fraction_of_output_in_agriculture
average_life_of_industrial_capital_1 -> average_life_of_industrial_capital
service_output_per_capita -> health_services_per_capita
mortality_15_to_44 -> maturation_44_to_45
ha_per_gha -> absorption_land_gha
maturation_14_to_15 -> population_0_to_14
persistent_pollution_technology_change_rate -> persistent_pollution_technology
initial_industrial_capital -> industrial_capital
land_development_rate -> potentially_arable_land
industrial_material_toxicity_index -> persistent_pollution_generation_industry
time -> resource_technology_change_rate
population_45_to_64 -> deaths_45_to_64
average_life_of_agricultural_inputs_2 -> average_life_agricultural_inputs
food_per_capita -> fraction_of_industrial_output_allocated_to_agriculture_1
average_life_agricultural_inputs -> marginal_productivity_of_agricultural_inputs
industrial_output -> land_yield_multiplier_from_air_pollution_2
service_output -> fraction_of_output_in_services
marginal_productivity_of_land_development -> fraction_of_agricultural_inputs_allocated_to_land_development
persistent_pollution_generation_factor_2 -> persistent_pollution_generation_factor
initial_nonrenewable_resources -> nonrenewable_resources
gdp_pc_unit -> education_index
gdp_pc_unit -> social_family_size_normal
gdp_per_capita -> education_index
perceived_life_expectancy -> completed_multiplier_from_perceived_lifetime
industrial_output_per_capita -> indicated_food_per_capita_2
one_year -> land_life_multiplier_from_land_yield
social_family_size_normal -> desired_completed_family_size
industrial_output -> service_capital_investment
gdp_pc_unit -> indicated_services_output_per_capita_1
deaths -> death_rate
life_expectancy -> life_expectancy_index
maximum_total_fertility_normal -> maximum_total_fertility
industrial_capital_output_ratio_multiplier_from_resource_conservation_technology -> industrial_capital_output_ratio_2
industrial_output_per_capita -> crowding_multiplier_from_industry
initial_population_0_to_14 -> population_0_to_14
assimilation_half_life_multiplier -> assimilation_half_life
fraction_of_industrial_output_allocated_to_services -> fraction_of_industrial_output_allocated_to_investment
industrial_capital_output_ratio_multiplier_from_pollution_technology -> industrial_capital_output_ratio_2
time -> land_life_multiplier_from_land_yield
industrial_output_per_capita -> urban_and_industrial_land_required_per_capita
policy_year -> indicated_services_output_per_capita
resource_use_fact_2 -> resource_use_factor
time -> fertility_control_effectiveness
time -> land_yield_technology_change_rate
time -> fraction_of_industrial_output_allocated_to_agriculture
life_expectancy_index -> human_welfare_index
jobs_per_hectare -> potential_jobs_agricultural_sector
indicated_food_per_capita_2 -> indicated_food_per_capita
deaths_15_to_44 -> population_15_to_44
population -> industrial_output_per_capita
labor_utilization_fraction -> delayed_labor_utilization_fraction
nonrenewable_resources -> fraction_of_resources_remaining
land_yield_technology_change_rate_multiplier -> land_yield_technology_change_rate
population -> food_per_capita
land_yield -> land_life_multiplier_from_land_yield_1
industrial_capital -> industrial_capital_depreciation
land_yield_multiplier_from_capital -> marginal_productivity_of_agricultural_inputs
fraction_of_industrial_capital_allocated_to_obtaining_resources -> industrial_output
arable_land_in_gigahectares_gha -> human_ecological_footprint
total_agricultural_investment -> land_development_rate
fraction_of_agricultural_inputs_allocated_to_land_development -> land_development_rate
industrial_output -> consumed_industrial_output
food -> fraction_of_output_in_services
potentially_arable_land -> development_cost_per_hectare
food_shortage_perception_delay -> perceived_food_ratio
average_industrial_output_per_capita -> family_income_expectation
marginal_productivity_of_agricultural_inputs -> fraction_of_agricultural_inputs_allocated_to_land_development
air_pollution_policy_implementation_time -> land_yield_multiplier_from_air_pollution
ref_lo_gdp -> gdp_index
fraction_of_industrial_output_allocated_to_agriculture_1 -> fraction_of_industrial_output_allocated_to_agriculture
indicated_food_per_capita -> fraction_of_industrial_output_allocated_to_agriculture_1
urban_and_industrial_land_required -> land_removal_for_urban_and_industrial_use
policy_year -> service_capital_output_ratio
life_expectancy -> mortality_15_to_44
inherent_land_fertility -> land_fertility_regeneration
assimilation_half_life_in_1970 -> assimilation_half_life
health_services_per_capita -> effective_health_services_per_capita
urban_land_gha -> human_ecological_footprint
gdp_pc_unit -> urban_and_industrial_land_required_per_capita
industrial_output -> land_yield_multipler_from_air_pollution_1
initial_population_54_to_64 -> population_45_to_64
gdp_pc_unit -> jobs_per_industrial_capital_unit
average_life_of_service_capital -> service_capital_depreciation
land_fertility -> land_yield
persistent_pollution_index -> lifetime_multiplier_from_persistent_pollution
fecundity_multiplier -> maximum_total_fertility
resource_use_factor -> industrial_capital_output_ratio_multiplier_from_resource_conservation_technology
persistent_pollution_index -> land_fertility_degredation_rate
fertility_control_effectiveness -> total_fertility
processing_loss -> food
persistent_pollution_in_1970 -> persistent_pollution_index
land_yield_technology -> land_yield_factor_2
deaths_15_to_44 -> deaths
population_15_to_44 -> population
land_fertility_regeneration_time -> land_fertility_regeneration
average_life_of_land -> land_erosion_rate
persistent_pollution_generation_rate -> persistent_pollution_appearance_rate
population_equilibrium_time -> births
mortality_45_to_64 -> maturation_64_to_65
land_yield_factor_2 -> land_yield_multiplier_from_technology
urban_and_industrial_land_development_time -> land_removal_for_urban_and_industrial_use
industrial_capital -> potential_jobs_industrial_sector
time -> indicated_services_output_per_capita
persistent_pollution_generation_industry -> persistent_pollution_generation_rate
desired_completed_family_size_normal -> desired_completed_family_size
gdp_pc_unit -> health_services_per_capita
land_fertility -> land_fertility_regeneration
industrial_capital -> industrial_output
mortality_0_to_14 -> maturation_14_to_15
fertility_control_allocation_per_capita -> fertility_control_facilities_per_capita
average_life_agricultural_inputs -> agricultural_inputs
industrial_output_per_capita -> indicated_services_output_per_capita_1
time -> desired_completed_family_size
technology_development_delay -> land_yield_factor_2
land_yield_technology_change_rate -> land_yield_technology
arable_land -> arable_land_in_gigahectares_gha
population_15_to_44 -> labor_force
urban_and_industrial_land -> land_removal_for_urban_and_industrial_use
population_0_to_14 -> maturation_14_to_15
land_removal_for_urban_and_industrial_use -> urban_and_industrial_land
land_fertility_degredation -> land_fertility
fertility_control_facilities_per_capita -> fertility_control_effectiveness
desired_resource_use_rate -> resource_technology_change_rate_multiplier
time -> average_life_of_service_capital
industrial_output_per_capita -> per_capita_resource_use_multiplier
service_output_per_capita -> jobs_per_service_capital_unit
life_expectancy -> mortality_65_plus
initial_arable_land -> arable_land
capacity_utilization_fraction -> service_output
persistent_pollution -> persistent_pollution_assimilation_rate
initial_urban_and_industrial_land -> urban_and_industrial_land
persistent_pollution_index -> assimilation_half_life_multiplier
service_capital_depreciation -> service_capital
deaths_0_to_14 -> population_0_to_14
gdp_pc_unit -> lifetime_multiplier_from_health_services_2
labor_force -> labor_utilization_fraction
births -> birth_rate
persistent_pollution_generation_factor -> industrial_capital_output_ratio_multiplier_from_pollution_technology
policy_year -> resource_use_factor
price_of_food -> fraction_of_output_in_agriculture
labor_utilization_fraction_delay_time -> delayed_labor_utilization_fraction
deaths -> births
time -> indicated_food_per_capita
total_agricultural_investment -> current_agricultural_inputs
land_yield_multiplier_from_technology -> land_yield
potential_jobs_agricultural_sector -> jobs
labor_force_participation_fraction -> labor_force
policy_year -> land_yield_multiplier_from_technology
industrial_output_per_capita -> jobs_per_industrial_capital_unit
desired_persistent_pollution_index -> persistent_pollution_technology_change_multiplier
maximum_total_fertility -> total_fertility
industrial_equilibrium_time -> fraction_of_industrial_output_allocated_to_consumption
persistent_pollution_generation_agriculture -> persistent_pollution_generation_rate
gdp_pc_unit -> jobs_per_service_capital_unit
service_capital_output_ratio_1 -> service_capital_output_ratio
ind_out_in_1970 -> land_yield_multiplier_from_air_pollution_2
one_year -> fecundity_multiplier
total_land -> human_ecological_footprint
population_15_to_44 -> maturation_44_to_45
}